0	28	22	7	15	25
1	7	27	18	32	27
2	8	28	63	10	15
3	61	33	62	52	75
4	7	30	59	37	75
5	97	98	26	32	91
6	80	5	44	21	71
7	21	14	52	72	53
8	83	88	86	69	62
9	63	70	13	47	29
10	99	66	65	78	32
11	90	73	91	62	4
12	88	37	24	66	72
13	77	35	96	80	61
14	75	24	45	83	87
15	38	80	17	51	11
16	8	67	99	71	31
17	55	47	46	54	3
18	29	23	39	16	22
19	29	99	86	18	46
